IS415-GAA - Take-home Exercise 3
…
  for (col_name in columns) {
    data_list[[col_name]] <- data[, c("Cities, provincies", col_name, "geometry")]
  }

  # Assign the populated list to the specified list name
  assign(new_data_list_name, data_list, envir = .GlobalEnv)
}

populate_data_by_col("vietnam_farms_data", vietnam_farms, YEARS, VIETNAM_COL_NAMES)

vietnam_farms_data

$`2012 Cultivation farm`
# A tibble: 63 × 3
   `Cities, provincies` `2012 Cultivation farm`                         geometry
   <chr>                                  <dbl>               <MULTIPOLYGON [°]>
 1 Ha Noi                                    11 (((105.8297 21.37512, 105.8307 …
 2 Vinh Phuc                                  0 (((105.585 21.53527, 105.591 21…
 3 Bac Ninh                                   0 (((106.0325 21.22488, 106.0322 …
 4 Quang Ninh                                 4 (((107.3455 20.68667, 107.3441 …
 5 Hai Duong                                  3 (((106.4971 21.22826, 106.4995 …
 6 Hai Phong                                  1 (((107.728 20.12807, 107.7187 2…
 7 Hung Yen                                   4 (((106.1005 20.99829, 106.1008 …
 8 Thai Binh                                  4 (((106.6048 20.27758, 106.6045 …
 9 Ha Nam                                     6 (((106.0332 20.6791, 106.0333 2…
10 Nam Dinh                                   2 (((106.1047 19.89106, 106.1038 …
# ℹ 53 more rows

$`2012 Livestock farm`
# A tibble: 63 × 3
   `Cities, provincies` `2012 Livestock farm`                           geometry
   <chr>                                <dbl>                 <MULTIPOLYGON [°]>
 1 Ha Noi                                 919 (((105.8297 21.37512, 105.8307 21…
 2 Vinh Phuc                              460 (((105.585 21.53527, 105.591 21.5…
 3 Bac Ninh                                65 (((106.0325 21.22488, 106.0322 21…
 4 Quang Ninh                              44 (((107.3455 20.68667, 107.3441 20…
 5 Hai Duong                              419 (((106.4971 21.22826, 106.4995 21…
 6 Hai Phong                              347 (((107.728 20.12807, 107.7187 20.…
 7 Hung Yen                               345 (((106.1005 20.99829, 106.1008 20…
 8 Thai Binh                              265 (((106.6048 20.27758, 106.6045 20…
 9 Ha Nam                                 176 (((106.0332 20.6791, 106.0333 20.…
10 Nam Dinh                               116 (((106.1047 19.89106, 106.1038 19…
# ℹ 53 more rows

$`2012 Fishing farm`
# A tibble: 63 × 3
   `Cities, provincies` `2012 Fishing farm`                             geometry
   <chr>                              <dbl>                   <MULTIPOLYGON [°]>
 1 Ha Noi                               188 (((105.8297 21.37512, 105.8307 21.3…
 2 Vinh Phuc                             36 (((105.585 21.53527, 105.591 21.534…
 3 Bac Ninh                               2 (((106.0325 21.22488, 106.0322 21.2…
 4 Quang Ninh                            88 (((107.3455 20.68667, 107.3441 20.6…
 5 Hai Duong                             16 (((106.4971 21.22826, 106.4995 21.2…
 6 Hai Phong                             63 (((107.728 20.12807, 107.7187 20.12…
 7 Hung Yen                               3 (((106.1005 20.99829, 106.1008 20.9…
 8 Thai Binh                            320 (((106.6048 20.27758, 106.6045 20.2…
 9 Ha Nam                                26 (((106.0332 20.6791, 106.0333 20.67…
10 Nam Dinh                             243 (((106.1047 19.89106, 106.1038 19.8…
# ℹ 53 more rows

$`2012 Others(*)`
# A tibble: 63 × 3
   `Cities, provincies` `2012 Others(*)`                                geometry
   <chr>                           <dbl>                      <MULTIPOLYGON [°]>
 1 Ha Noi                            115 (((105.8297 21.37512, 105.8307 21.3739…
 2 Vinh Phuc                          12 (((105.585 21.53527, 105.591 21.53449,…
 3 Bac Ninh                            7 (((106.0325 21.22488, 106.0322 21.2196…
 4 Quang Ninh                          5 (((107.3455 20.68667, 107.3441 20.6866…
 5 Hai Duong                          68 (((106.4971 21.22826, 106.4995 21.2254…
 6 Hai Phong                          10 (((107.728 20.12807, 107.7187 20.12806…
 7 Hung Yen                            1 (((106.1005 20.99829, 106.1008 20.9981…
 8 Thai Binh                          11 (((106.6048 20.27758, 106.6045 20.2775…
 9 Ha Nam                             32 (((106.0332 20.6791, 106.0333 20.6764,…
10 Nam Dinh                            5 (((106.1047 19.89106, 106.1038 19.8908…
# ℹ 53 more rows

$`2013 Cultivation farm`
# A tibble: 63 × 3
   `Cities, provincies` `2013 Cultivation farm`                         geometry
   <chr>                                  <dbl>               <MULTIPOLYGON [°]>
 1 Ha Noi                                    11 (((105.8297 21.37512, 105.8307 …
 2 Vinh Phuc                                  0 (((105.585 21.53527, 105.591 21…
 3 Bac Ninh                                   0 (((106.0325 21.22488, 106.0322 …
 4 Quang Ninh                                 4 (((107.3455 20.68667, 107.3441 …
 5 Hai Duong                                  2 (((106.4971 21.22826, 106.4995 …
 6 Hai Phong                                  3 (((107.728 20.12807, 107.7187 2…
 7 Hung Yen                                   5 (((106.1005 20.99829, 106.1008 …
 8 Thai Binh                                  1 (((106.6048 20.27758, 106.6045 …
 9 Ha Nam                                     4 (((106.0332 20.6791, 106.0333 2…
10 Nam Dinh                                   1 (((106.1047 19.89106, 106.1038 …
# ℹ 53 more rows

$`2013 Livestock farm`
# A tibble: 63 × 3
   `Cities, provincies` `2013 Livestock farm`                           geometry
   <chr>                                <dbl>                 <MULTIPOLYGON [°]>
 1 Ha Noi                                 944 (((105.8297 21.37512, 105.8307 21…
 2 Vinh Phuc                              532 (((105.585 21.53527, 105.591 21.5…
 3 Bac Ninh                                73 (((106.0325 21.22488, 106.0322 21…
 4 Quang Ninh                              84 (((107.3455 20.68667, 107.3441 20…
 5 Hai Duong                              451 (((106.4971 21.22826, 106.4995 21…
 6 Hai Phong                              458 (((107.728 20.12807, 107.7187 20.…
 7 Hung Yen                               404 (((106.1005 20.99829, 106.1008 20…
 8 Thai Binh                              279 (((106.6048 20.27758, 106.6045 20…
 9 Ha Nam                                 371 (((106.0332 20.6791, 106.0333 20.…
10 Nam Dinh                               138 (((106.1047 19.89106, 106.1038 19…
# ℹ 53 more rows

$`2013 Fishing farm`
# A tibble: 63 × 3
   `Cities, provincies` `2013 Fishing farm`                             geometry
   <chr>                              <dbl>                   <MULTIPOLYGON [°]>
 1 Ha Noi                               180 (((105.8297 21.37512, 105.8307 21.3…
 2 Vinh Phuc                             33 (((105.585 21.53527, 105.591 21.534…
 3 Bac Ninh                               4 (((106.0325 21.22488, 106.0322 21.2…
 4 Quang Ninh                           109 (((107.3455 20.68667, 107.3441 20.6…
 5 Hai Duong                             23 (((106.4971 21.22826, 106.4995 21.2…
 6 Hai Phong                             78 (((107.728 20.12807, 107.7187 20.12…
 7 Hung Yen                               4 (((106.1005 20.99829, 106.1008 20.9…
 8 Thai Binh                            316 (((106.6048 20.27758, 106.6045 20.2…
 9 Ha Nam                                23 (((106.0332 20.6791, 106.0333 20.67…
10 Nam Dinh                             247 (((106.1047 19.89106, 106.1038 19.8…
# ℹ 53 more rows

$`2013 Others(*)`
# A tibble: 63 × 3
   `Cities, provincies` `2013 Others(*)`                                geometry
   <chr>                           <dbl>                      <MULTIPOLYGON [°]>
 1 Ha Noi                            156 (((105.8297 21.37512, 105.8307 21.3739…
 2 Vinh Phuc                          24 (((105.585 21.53527, 105.591 21.53449,…
 3 Bac Ninh                            1 (((106.0325 21.22488, 106.0322 21.2196…
 4 Quang Ninh                         15 (((107.3455 20.68667, 107.3441 20.6866…
 5 Hai Duong                          49 (((106.4971 21.22826, 106.4995 21.2254…
 6 Hai Phong                          32 (((107.728 20.12807, 107.7187 20.12806…
 7 Hung Yen                            3 (((106.1005 20.99829, 106.1008 20.9981…
 8 Thai Binh                          54 (((106.6048 20.27758, 106.6045 20.2775…
 9 Ha Nam                             20 (((106.0332 20.6791, 106.0333 20.6764,…
10 Nam Dinh                            5 (((106.1047 19.89106, 106.1038 19.8908…
# ℹ 53 more rows

$`2014 Cultivation farm`
# A tibble: 63 × 3
   `Cities, provincies` `2014 Cultivation farm`                         geometry
   <chr>                                  <dbl>               <MULTIPOLYGON [°]>
 1 Ha Noi                                    11 (((105.8297 21.37512, 105.8307 …
 2 Vinh Phuc                                  0 (((105.585 21.53527, 105.591 21…
 3 Bac Ninh                                   0 (((106.0325 21.22488, 106.0322 …
 4 Quang Ninh                                 8 (((107.3455 20.68667, 107.3441 …
 5 Hai Duong                                  4 (((106.4971 21.22826, 106.4995 …
 6 Hai Phong                                  0 (((107.728 20.12807, 107.7187 2…
 7 Hung Yen                                   8 (((106.1005 20.99829, 106.1008 …
 8 Thai Binh                                  2 (((106.6048 20.27758, 106.6045 …
 9 Ha Nam                                     2 (((106.0332 20.6791, 106.0333 2…
10 Nam Dinh                                   1 (((106.1047 19.89106, 106.1038 …
# ℹ 53 more rows

$`2014 Livestock farm`
# A tibble: 63 × 3
   `Cities, provincies` `2014 Livestock farm`                           geometry
   <chr>                                <dbl>                 <MULTIPOLYGON [°]>
 1 Ha Noi                                1346 (((105.8297 21.37512, 105.8307 21…
 2 Vinh Phuc                              534 (((105.585 21.53527, 105.591 21.5…
 3 Bac Ninh                                91 (((106.0325 21.22488, 106.0322 21…
 4 Quang Ninh                             136 (((107.3455 20.68667, 107.3441 20…
 5 Hai Duong                              505 (((106.4971 21.22826, 106.4995 21…
 6 Hai Phong                              519 (((107.728 20.12807, 107.7187 20.…
 7 Hung Yen                               569 (((106.1005 20.99829, 106.1008 20…
 8 Thai Binh                              474 (((106.6048 20.27758, 106.6045 20…
 9 Ha Nam                                 443 (((106.0332 20.6791, 106.0333 20.…
10 Nam Dinh                               150 (((106.1047 19.89106, 106.1038 19…
# ℹ 53 more rows

$`2014 Fishing farm`
# A tibble: 63 × 3
   `Cities, provincies` `2014 Fishing farm`                             geometry
   <chr>                              <dbl>                   <MULTIPOLYGON [°]>
 1 Ha Noi                               132 (((105.8297 21.37512, 105.8307 21.3…
 2 Vinh Phuc                             51 (((105.585 21.53527, 105.591 21.534…
 3 Bac Ninh                               2 (((106.0325 21.22488, 106.0322 21.2…
 4 Quang Ninh                           139 (((107.3455 20.68667, 107.3441 20.6…
 5 Hai Duong                             26 (((106.4971 21.22826, 106.4995 21.2…
 6 Hai Phong                             89 (((107.728 20.12807, 107.7187 20.12…
 7 Hung Yen                               5 (((106.1005 20.99829, 106.1008 20.9…
 8 Thai Binh                            204 (((106.6048 20.27758, 106.6045 20.2…
 9 Ha Nam                                13 (((106.0332 20.6791, 106.0333 20.67…
10 Nam Dinh                             254 (((106.1047 19.89106, 106.1038 19.8…
# ℹ 53 more rows

$`2014 Others(*)`
# A tibble: 63 × 3
   `Cities, provincies` `2014 Others(*)`                                geometry
   <chr>                           <dbl>                      <MULTIPOLYGON [°]>
 1 Ha Noi                            148 (((105.8297 21.37512, 105.8307 21.3739…
 2 Vinh Phuc                          15 (((105.585 21.53527, 105.591 21.53449,…
 3 Bac Ninh                            1 (((106.0325 21.22488, 106.0322 21.2196…
 4 Quang Ninh                         33 (((107.3455 20.68667, 107.3441 20.6866…
 5 Hai Duong                          44 (((106.4971 21.22826, 106.4995 21.2254…
 6 Hai Phong                           6 (((107.728 20.12807, 107.7187 20.12806…
 7 Hung Yen                            2 (((106.1005 20.99829, 106.1008 20.9981…
 8 Thai Binh                          41 (((106.6048 20.27758, 106.6045 20.2775…
 9 Ha Nam                             10 (((106.0332 20.6791, 106.0333 20.6764,…
10 Nam Dinh                            7 (((106.1047 19.89106, 106.1038 19.8908…
# ℹ 53 more rows

$`2015 Cultivation farm`
# A tibble: 63 × 3
   `Cities, provincies` `2015 Cultivation farm`                         geometry
   <chr>                                  <dbl>               <MULTIPOLYGON [°]>
 1 Ha Noi                                    16 (((105.8297 21.37512, 105.8307 …
 2 Vinh Phuc                                  0 (((105.585 21.53527, 105.591 21…
 3 Bac Ninh                                   0 (((106.0325 21.22488, 106.0322 …
 4 Quang Ninh                                 6 (((107.3455 20.68667, 107.3441 …
 5 Hai Duong                                  4 (((106.4971 21.22826, 106.4995 …
 6 Hai Phong                                  0 (((107.728 20.12807, 107.7187 2…
 7 Hung Yen                                  12 (((106.1005 20.99829, 106.1008 …
 8 Thai Binh                                  0 (((106.6048 20.27758, 106.6045 …
 9 Ha Nam                                     2 (((106.0332 20.6791, 106.0333 2…
10 Nam Dinh                                   1 (((106.1047 19.89106, 106.1038 …
# ℹ 53 more rows

$`2015 Livestock farm`
# A tibble: 63 × 3
   `Cities, provincies` `2015 Livestock farm`                           geometry
   <chr>                                <dbl>                 <MULTIPOLYGON [°]>
 1 Ha Noi                                1849 (((105.8297 21.37512, 105.8307 21…
 2 Vinh Phuc                              628 (((105.585 21.53527, 105.591 21.5…
 3 Bac Ninh                               105 (((106.0325 21.22488, 106.0322 21…
 4 Quang Ninh                             140 (((107.3455 20.68667, 107.3441 20…
 5 Hai Duong                              553 (((106.4971 21.22826, 106.4995 21…
 6 Hai Phong                              528 (((107.728 20.12807, 107.7187 20.…
 7 Hung Yen                               639 (((106.1005 20.99829, 106.1008 20…
 8 Thai Binh                              573 (((106.6048 20.27758, 106.6045 20…
 9 Ha Nam                                 740 (((106.0332 20.6791, 106.0333 20.…
10 Nam Dinh                               159 (((106.1047 19.89106, 106.1038 19…
# ℹ 53 more rows

$`2015 Fishing farm`
# A tibble: 63 × 3
   `Cities, provincies` `2015 Fishing farm`                             geometry
   <chr>                              <dbl>                   <MULTIPOLYGON [°]>
 1 Ha Noi                               131 (((105.8297 21.37512, 105.8307 21.3…
 2 Vinh Phuc                             49 (((105.585 21.53527, 105.591 21.534…
 3 Bac Ninh                               1 (((106.0325 21.22488, 106.0322 21.2…
 4 Quang Ninh                           152 (((107.3455 20.68667, 107.3441 20.6…
 5 Hai Duong                             24 (((106.4971 21.22826, 106.4995 21.2…
 6 Hai Phong                             90 (((107.728 20.12807, 107.7187 20.12…
 7 Hung Yen                               5 (((106.1005 20.99829, 106.1008 20.9…
 8 Thai Binh                            199 (((106.6048 20.27758, 106.6045 20.2…
 9 Ha Nam                                17 (((106.0332 20.6791, 106.0333 20.67…
10 Nam Dinh                             257 (((106.1047 19.89106, 106.1038 19.8…
# ℹ 53 more rows

$`2015 Others(*)`
# A tibble: 63 × 3
   `Cities, provincies` `2015 Others(*)`                                geometry
   <chr>                           <dbl>                      <MULTIPOLYGON [°]>
 1 Ha Noi                            141 (((105.8297 21.37512, 105.8307 21.3739…
 2 Vinh Phuc                          14 (((105.585 21.53527, 105.591 21.53449,…
 3 Bac Ninh                            2 (((106.0325 21.22488, 106.0322 21.2196…
 4 Quang Ninh                         31 (((107.3455 20.68667, 107.3441 20.6866…
 5 Hai Duong                          45 (((106.4971 21.22826, 106.4995 21.2254…
 6 Hai Phong                           6 (((107.728 20.12807, 107.7187 20.12806…
 7 Hung Yen                            3 (((106.1005 20.99829, 106.1008 20.9981…
 8 Thai Binh                           9 (((106.6048 20.27758, 106.6045 20.2775…
 9 Ha Nam                             10 (((106.0332 20.6791, 106.0333 20.6764,…
10 Nam Dinh                            7 (((106.1047 19.89106, 106.1038 19.8908…
# ℹ 53 more rows

$`2016 Cultivation farm`
# A tibble: 63 × 3
   `Cities, provincies` `2016 Cultivation farm`                         geometry
   <chr>                                  <dbl>               <MULTIPOLYGON [°]>
 1 Ha Noi                                    29 (((105.8297 21.37512, 105.8307 …
 2 Vinh Phuc                                  1 (((105.585 21.53527, 105.591 21…
 3 Bac Ninh                                   1 (((106.0325 21.22488, 106.0322 …
 4 Quang Ninh                                18 (((107.3455 20.68667, 107.3441 …
 5 Hai Duong                                  0 (((106.4971 21.22826, 106.4995 …
 6 Hai Phong                                 10 (((107.728 20.12807, 107.7187 2…
 7 Hung Yen                                   0 (((106.1005 20.99829, 106.1008 …
 8 Thai Binh                                  7 (((106.6048 20.27758, 106.6045 …
 9 Ha Nam                                     4 (((106.0332 20.6791, 106.0333 2…
10 Nam Dinh                                   0 (((106.1047 19.89106, 106.1038 …
# ℹ 53 more rows

$`2016 Livestock farm`
# A tibble: 63 × 3
   `Cities, provincies` `2016 Livestock farm`                           geometry
   <chr>                                <dbl>                 <MULTIPOLYGON [°]>
 1 Ha Noi                                2904 (((105.8297 21.37512, 105.8307 21…
 2 Vinh Phuc                              944 (((105.585 21.53527, 105.591 21.5…
 3 Bac Ninh                               122 (((106.0325 21.22488, 106.0322 21…
 4 Quang Ninh                             148 (((107.3455 20.68667, 107.3441 20…
 5 Hai Duong                             1104 (((106.4971 21.22826, 106.4995 21…
 6 Hai Phong                              886 (((107.728 20.12807, 107.7187 20.…
 7 Hung Yen                               576 (((106.1005 20.99829, 106.1008 20…
 8 Thai Binh                              696 (((106.6048 20.27758, 106.6045 20…
 9 Ha Nam                                1030 (((106.0332 20.6791, 106.0333 20.…
10 Nam Dinh                               192 (((106.1047 19.89106, 106.1038 19…
# ℹ 53 more rows

$`2016 Fishing farm`
# A tibble: 63 × 3
   `Cities, provincies` `2016 Fishing farm`                             geometry
   <chr>                              <dbl>                   <MULTIPOLYGON [°]>
 1 Ha Noi                               214 (((105.8297 21.37512, 105.8307 21.3…
 2 Vinh Phuc                             36 (((105.585 21.53527, 105.591 21.534…
 3 Bac Ninh                               2 (((106.0325 21.22488, 106.0322 21.2…
 4 Quang Ninh                           138 (((107.3455 20.68667, 107.3441 20.6…
 5 Hai Duong                             13 (((106.4971 21.22826, 106.4995 21.2…
 6 Hai Phong                              1 (((107.728 20.12807, 107.7187 20.12…
 7 Hung Yen                              68 (((106.1005 20.99829, 106.1008 20.9…
 8 Thai Binh                            261 (((106.6048 20.27758, 106.6045 20.2…
 9 Ha Nam                                20 (((106.0332 20.6791, 106.0333 20.67…
10 Nam Dinh                             227 (((106.1047 19.89106, 106.1038 19.8…
# ℹ 53 more rows
…
