IS415-GAA - In-class Exercise 11
…
Joining Tables

condo_resale_geocoded = left_join(
  condo_resale, found,
  by = c('Postal Code' = "POSTAL")
)

condo_resale_geocoded

# A tibble: 5,991 × 23
   `Project Name`      `Transacted Price ($)` `Area (SQFT)` `Unit Price ($ PSF)`
   <chr>                                <dbl>         <dbl>                <dbl>
 1 CASA ROSA                          1500000         1367.                 1097
 2 THE MINTON                         1840000         1216.                 1513
 3 NV RESIDENCES                      1350000         1109.                 1218
 4 SANT RITZ                           890000          527.                 1687
 5 ECO                                1620000          990.                 1636
 6 MARINA BAY RESIDEN…                1420000          710.                 1999
 7 THE GARDENS AT BIS…                1800000         1206.                 1493
 8 THOMSON 800                        2800000         1625.                 1723
 9 SELETAR PARK RESID…                1490000         1507.                  989
10 THE ESTUARY                        1540000         1195.                 1289
# ℹ 5,981 more rows
# ℹ 19 more variables: `Sale Date` <date>, Address <chr>, `Type of Sale` <chr>,
#   `Type of Area` <chr>, `Area (SQM)` <dbl>, `Unit Price ($ PSM)` <dbl>,
#   `Nett Price($)` <chr>, `Property Type` <chr>, `Number of Units` <dbl>,
#   Tenure <chr>, `Completion Date` <chr>, `Purchaser Address Indicator` <chr>,
#   `Postal Code` <chr>, `Postal District` <chr>, `Postal Sector` <chr>,
#   `Planning Region` <chr>, `Planning Area` <chr>, XCOORD <chr>, …
Converting to sf

condo_resale_sf <- st_as_sf(condo_resale_geocoded,
                            coords = c("XCOORD",
                                       "YCOORD"),
                            crs = 3414)

condo_resale_sf

Simple feature collection with 5991 features and 21 fields
Geometry type: POINT
Dimension:     XY
Bounding box:  xmin: 14973.78 ymin: 24730.35 xmax: 43287.74 ymax: 48670.84
Projected CRS: SVY21 / Singapore TM
# A tibble: 5,991 × 22
   `Project Name`      `Transacted Price ($)` `Area (SQFT)` `Unit Price ($ PSF)`
 * <chr>                                <dbl>         <dbl>                <dbl>
 1 CASA ROSA                          1500000         1367.                 1097
 2 THE MINTON                         1840000         1216.                 1513
 3 NV RESIDENCES                      1350000         1109.                 1218
 4 SANT RITZ                           890000          527.                 1687
 5 ECO                                1620000          990.                 1636
 6 MARINA BAY RESIDEN…                1420000          710.                 1999
 7 THE GARDENS AT BIS…                1800000         1206.                 1493
 8 THOMSON 800                        2800000         1625.                 1723
 9 SELETAR PARK RESID…                1490000         1507.                  989
10 THE ESTUARY                        1540000         1195.                 1289
# ℹ 5,981 more rows
# ℹ 18 more variables: `Sale Date` <date>, Address <chr>, `Type of Sale` <chr>,
#   `Type of Area` <chr>, `Area (SQM)` <dbl>, `Unit Price ($ PSM)` <dbl>,
#   `Nett Price($)` <chr>, `Property Type` <chr>, `Number of Units` <dbl>,
#   Tenure <chr>, `Completion Date` <chr>, `Purchaser Address Indicator` <chr>,
#   `Postal Code` <chr>, `Postal District` <chr>, `Postal Sector` <chr>,
#   `Planning Region` <chr>, `Planning Area` <chr>, geometry <POINT [m]>

Cleaning Spatial Data

overlapping_points <- condo_resale_sf %>%
  mutate(overlap = lengths(st_equals(., .)) > 1)

overlapping_points

Simple feature collection with 5991 features and 22 fields
Geometry type: POINT
Dimension:     XY
Bounding box:  xmin: 14973.78 ymin: 24730.35 xmax: 43287.74 ymax: 48670.84
Projected CRS: SVY21 / Singapore TM
# A tibble: 5,991 × 23
   `Project Name`      `Transacted Price ($)` `Area (SQFT)` `Unit Price ($ PSF)`
 * <chr>                                <dbl>         <dbl>                <dbl>
 1 CASA ROSA                          1500000         1367.                 1097
 2 THE MINTON                         1840000         1216.                 1513
 3 NV RESIDENCES                      1350000         1109.                 1218
 4 SANT RITZ                           890000          527.                 1687
 5 ECO                                1620000          990.                 1636
 6 MARINA BAY RESIDEN…                1420000          710.                 1999
 7 THE GARDENS AT BIS…                1800000         1206.                 1493
 8 THOMSON 800                        2800000         1625.                 1723
 9 SELETAR PARK RESID…                1490000         1507.                  989
10 THE ESTUARY                        1540000         1195.                 1289
# ℹ 5,981 more rows
# ℹ 19 more variables: `Sale Date` <date>, Address <chr>, `Type of Sale` <chr>,
#   `Type of Area` <chr>, `Area (SQM)` <dbl>, `Unit Price ($ PSM)` <dbl>,
#   `Nett Price($)` <chr>, `Property Type` <chr>, `Number of Units` <dbl>,
#   Tenure <chr>, `Completion Date` <chr>, `Purchaser Address Indicator` <chr>,
#   `Postal Code` <chr>, `Postal District` <chr>, `Postal Sector` <chr>,
#   `Planning Region` <chr>, `Planning Area` <chr>, geometry <POINT [m]>, …

Spatial JIttering

condo_resale_sf <- condo_resale_sf %>%
  st_jitter(amount = 2)

condo_resale_sf

Simple feature collection with 5991 features and 21 fields
Geometry type: POINT
Dimension:     XY
Bounding box:  xmin: 14974.14 ymin: 24730.91 xmax: 43289.23 ymax: 48672.6
Projected CRS: SVY21 / Singapore TM
# A tibble: 5,991 × 22
   `Project Name`      `Transacted Price ($)` `Area (SQFT)` `Unit Price ($ PSF)`
 * <chr>                                <dbl>         <dbl>                <dbl>
 1 CASA ROSA                          1500000         1367.                 1097
 2 THE MINTON                         1840000         1216.                 1513
 3 NV RESIDENCES                      1350000         1109.                 1218
 4 SANT RITZ                           890000          527.                 1687
 5 ECO                                1620000          990.                 1636
 6 MARINA BAY RESIDEN…                1420000          710.                 1999
 7 THE GARDENS AT BIS…                1800000         1206.                 1493
 8 THOMSON 800                        2800000         1625.                 1723
 9 SELETAR PARK RESID…                1490000         1507.                  989
10 THE ESTUARY                        1540000         1195.                 1289
# ℹ 5,981 more rows
# ℹ 18 more variables: `Sale Date` <date>, Address <chr>, `Type of Sale` <chr>,
#   `Type of Area` <chr>, `Area (SQM)` <dbl>, `Unit Price ($ PSM)` <dbl>,
#   `Nett Price($)` <chr>, `Property Type` <chr>, `Number of Units` <dbl>,
#   Tenure <chr>, `Completion Date` <chr>, `Purchaser Address Indicator` <chr>,
#   `Postal Code` <chr>, `Postal District` <chr>, `Postal Sector` <chr>,
#   `Planning Region` <chr>, `Planning Area` <chr>, geometry <POINT [m]>
