IS415-GAA - Take-home Exercise 2
…
lisa <- thbddo_q %>% 
  mutate(local_moran = local_moran(
    no_cases, nb, wt, nsim = 99),
         .before = 1) %>%
  unnest(local_moran)

lisa

Simple feature collection with 77 features and 20 fields
Geometry type: MULTIPOLYGON
Dimension:     XY
Bounding box:  xmin: 97.34336 ymin: 5.613038 xmax: 105.637 ymax: 20.46507
Geodetic CRS:  WGS 84
# A tibble: 77 × 21
         ii      eii   var_ii   z_ii  p_ii p_ii_sim p_folded_sim skewness
      <dbl>    <dbl>    <dbl>  <dbl> <dbl>    <dbl>        <dbl>    <dbl>
 1 -0.285   -0.00289 0.149    -0.731 0.465     0.48         0.24    0.725
 2  0.111    0.0133  0.0344    0.528 0.597     0.58         0.29    0.582
 3 -0.165   -0.0336  0.168    -0.320 0.749     0.7          0.35   -0.921
 4  0.0122   0.00120 0.000465  0.509 0.611     0.7          0.35   -0.565
 5  0.132   -0.00183 0.0139    1.13  0.257     0.28         0.14   -0.342
 6  0.436    0.00209 0.140     1.16  0.245     0.28         0.14   -0.541
 7  0.131   -0.00766 0.0453    0.651 0.515     0.6          0.3    -0.565
 8  0.637   -0.0183  0.226     1.38  0.169     0.1          0.05   -0.678
 9  0.790   -0.0535  0.331     1.47  0.142     0.06         0.03   -1.01 
10  0.00790 -0.0861  0.132     0.258 0.796     0.88         0.44   -0.394
# ℹ 67 more rows
# ℹ 13 more variables: kurtosis <dbl>, mean <fct>, median <fct>, pysal <fct>,
#   nb <nb>, wt <list>, Shape_Leng <dbl>, Shape_Area <dbl>, province_en <chr>,
#   fiscal_year <dbl>, types_of_drug_offenses <chr>, no_cases <dbl>,
#   geometry <MULTIPOLYGON [°]>
…
